{
  "message": "ok",
  "totalRecords": 82,
  "totalPages": 9,
  "previous": null,
  "next": "https://www.swapi.tech/api/people?page=2&limit=10",
  "results": [
    {
      "uid": "1",
      "name": "Luke Skywalker",
      "url": "https://www.swapi.tech/api/people/1"
    },
    {
      "uid": "2",
      "name": "C-3PO", 
      "url": "https://www.swapi.tech/api/people/2"
    },
    {
      "uid": "3",
      "name": "R2-D2",
      "url": "https://www.swapi.tech/api/people/3"
    }
  ]
}